<?xml version="1.0" encoding="UTF-8"?>
<!DOCTYPE svg PUBLIC "-//W3C//DTD SVG 1.1//EN" "http://www.w3.org/Graphics/SVG/1.1/DTD/svg11.dtd">
<!-- Creator: CorelDRAW 2018 (64 Bit) -->
<svg xmlns="http://www.w3.org/2000/svg" xml:space="preserve" width="295px" height="268px" version="1.1" style="shape-rendering:geometricPrecision; text-rendering:geometricPrecision; image-rendering:optimizeQuality; fill-rule:evenodd; clip-rule:evenodd"
viewBox="0 0 32.739 29.729"
 xmlns:xlink="http://www.w3.org/1999/xlink">
 <defs>
  <style type="text/css">
   <![CDATA[
    .fil0 {fill:#D1D8DA}
   ]]>
  </style>
 </defs>
 <g id="Camada_x0020_1">
  <metadata id="CorelCorpID_0Corel-Layer"/>
  <path class="fil0" d="M24.993 3.985c-6.008,-5.594 -15.413,-5.258 -21.008,0.75 -5.594,6.009 -5.258,15.414 0.75,21.008 6.009,5.594 15.414,5.259 21.008,-0.75 0.194,-0.207 0.379,-0.419 0.558,-0.634l6.438 3.089 -4.086 -7.023c2.233,-5.542 0.975,-12.125 -3.66,-16.44z"/>
 </g>
</svg>
