<?xml version="1.0" encoding="UTF-8"?>
<!DOCTYPE svg PUBLIC "-//W3C//DTD SVG 1.1//EN" "http://www.w3.org/Graphics/SVG/1.1/DTD/svg11.dtd">
<!-- Creator: CorelDRAW 2018 (64 Bit) -->
<svg xmlns="http://www.w3.org/2000/svg" xml:space="preserve" width="24px" height="24px" version="1.1" style="shape-rendering:geometricPrecision; text-rendering:geometricPrecision; image-rendering:optimizeQuality; fill-rule:evenodd; clip-rule:evenodd"
viewBox="0 0 0.049 0.049"
 xmlns:xlink="http://www.w3.org/1999/xlink">
 <defs>
  <style type="text/css">
   <![CDATA[
    .fil0 {fill:#ED6B06}
   ]]>
  </style>
 </defs>
 <g id="Camada_x0020_1">
  <metadata id="CorelCorpID_0Corel-Layer"/>
  <g id="_1973089684160">
   <g>
    <path class="fil0" d="M0.045 0l-0.041 0c-0.002,0 -0.004,0.002 -0.004,0.004l0 0.041c0,0.002 0.002,0.004 0.004,0.004l0.041 0c0.002,0 0.004,-0.002 0.004,-0.004l0 -0.041c0,-0.002 -0.002,-0.004 -0.004,-0.004zm0.002 0.045c0,0.001 -0.001,0.002 -0.002,0.002l-0.041 0c-0.001,0 -0.002,-0.001 -0.002,-0.002l0 -0.037 0.045 0 0 0.037 0 0zm0 -0.038l-0.045 0 0 -0.003c0,-0.001 0.001,-0.002 0.002,-0.002l0.041 0c0.001,0 0.002,0.001 0.002,0.002l0 0.003 0 0z"/>
    <path class="fil0" d="M0.006 0.003l-0.001 0c-0.001,0 -0.001,0.001 -0.001,0.001 0,0.001 0,0.001 0.001,0.001l0.001 0c0,0 0.001,0 0.001,-0.001 0,0 -0.001,-0.001 -0.001,-0.001z"/>
    <path class="fil0" d="M0.009 0.003c0,0 0,0 0,0 0,0 -0.001,0 -0.001,0 0,0.001 0,0.001 0,0.002 0,0 0.001,0 0.001,0 0,0 0,0 0,0 0,0 0,0 0.001,0 0,-0.001 0,-0.001 0,-0.002 -0.001,0 -0.001,0 -0.001,0z"/>
    <path class="fil0" d="M0.013 0.003c-0.001,0 -0.001,0 -0.001,0 0,0.001 -0.001,0.001 -0.001,0.001 0,0 0,0 0,0 0,0 0.001,0.001 0.001,0.001 0,0 0,0 0.001,0 0,0 0,-0.001 0,-0.001 0,0 0,0 0,0 0,0 0,-0.001 0,-0.001z"/>
    <path class="fil0" d="M0.044 0.003l-0.028 0c0,0 -0.001,0.001 -0.001,0.001 0,0.001 0.001,0.001 0.001,0.001l0.028 0c0,0 0.001,0 0.001,-0.001 0,0 -0.001,-0.001 -0.001,-0.001z"/>
    <path class="fil0" d="M0.012 0.039c0.001,0 0.001,0 0.001,0 0.003,0.003 0.007,0.005 0.011,0.005 0.005,0 0.009,-0.002 0.012,-0.005 0,0 0,0 0,0 0,0 0,0 0,0 0.006,-0.007 0.006,-0.016 0,-0.022l0 0c0,0 0,0 0,0 0,0 0,0 0,-0.001 -0.003,-0.003 -0.007,-0.005 -0.012,-0.005 -0.004,0 -0.008,0.002 -0.011,0.005 0,0.001 0,0.001 -0.001,0.001 0,0 0,0 0,0 -0.005,0.006 -0.005,0.015 0,0.022 0,0 0,0 0,0zm0.017 0.003c0.001,-0.002 0.002,-0.004 0.003,-0.006l0 0c0.001,0.001 0.002,0.002 0.002,0.002 -0.001,0.002 -0.003,0.003 -0.005,0.004zm0.007 -0.005c-0.001,-0.001 -0.003,-0.002 -0.004,-0.002 0.001,-0.002 0.001,-0.004 0.001,-0.007l0.006 0c0,0.004 -0.001,0.007 -0.003,0.009zm0.003 -0.01l-0.006 0c0,-0.002 0,-0.004 -0.001,-0.007 0.001,0 0.003,-0.001 0.004,-0.002 0.002,0.003 0.003,0.006 0.003,0.009zm-0.005 -0.01c0,0.001 -0.001,0.001 -0.002,0.002 -0.001,-0.002 -0.002,-0.004 -0.003,-0.005 0.002,0 0.004,0.002 0.005,0.003zm-0.009 -0.004c0.002,0.001 0.004,0.003 0.005,0.006 -0.001,0.001 -0.003,0.001 -0.005,0.001l0 -0.007zm0 0.009c0.002,0 0.004,0 0.006,-0.001 0,0.002 0,0.004 0,0.006l-0.006 0 0 -0.005zm0 0.006l0.006 0c0,0.002 0,0.004 0,0.006 -0.002,0 -0.004,-0.001 -0.006,-0.001l0 -0.005zm0 0.007c0.002,0 0.004,0 0.005,0.001 -0.001,0.003 -0.003,0.006 -0.005,0.006l0 -0.007zm-0.011 0.003c0.001,0 0.002,-0.001 0.003,-0.002l0 0c0.001,0.002 0.002,0.004 0.003,0.006 -0.002,-0.001 -0.004,-0.002 -0.006,-0.004zm0.01 0.004c-0.002,0 -0.004,-0.003 -0.005,-0.006 0.001,-0.001 0.003,-0.001 0.005,-0.001l0 0.007zm0 -0.009c-0.002,0 -0.004,0.001 -0.006,0.001 0,-0.002 0,-0.004 0,-0.006l0.006 0 0 0.005zm0 -0.006l-0.006 0c0,-0.002 0,-0.004 0,-0.006 0.002,0.001 0.004,0.001 0.006,0.001l0 0.005zm0 -0.014l0 0.007c-0.002,0 -0.004,0 -0.005,-0.001 0.001,-0.003 0.003,-0.005 0.005,-0.006zm-0.004 0.001c-0.001,0.001 -0.002,0.003 -0.003,0.005l0 0c-0.001,-0.001 -0.002,-0.001 -0.003,-0.002 0.002,-0.001 0.004,-0.003 0.006,-0.003zm-0.007 0.004c0.001,0.001 0.002,0.002 0.004,0.002 -0.001,0.003 -0.001,0.005 -0.001,0.007l-0.006 0c0,-0.003 0.001,-0.006 0.003,-0.009zm0.003 0.01c0,0.003 0,0.005 0.001,0.007 -0.002,0 -0.003,0.001 -0.004,0.002 -0.002,-0.002 -0.003,-0.005 -0.003,-0.009l0.006 0 0 0z"/>
   </g>
  </g>
 </g>
</svg>
