<?xml version="1.0" encoding="UTF-8"?>
<!DOCTYPE svg PUBLIC "-//W3C//DTD SVG 1.1//EN" "http://www.w3.org/Graphics/SVG/1.1/DTD/svg11.dtd">
<!-- Creator: CorelDRAW 2018 (64 Bit) -->
<svg xmlns="http://www.w3.org/2000/svg" xml:space="preserve" width="23px" height="30px" version="1.1" style="shape-rendering:geometricPrecision; text-rendering:geometricPrecision; image-rendering:optimizeQuality; fill-rule:evenodd; clip-rule:evenodd"
viewBox="0 0 0.073 0.096"
 xmlns:xlink="http://www.w3.org/1999/xlink">
 <defs>
  <style type="text/css">
   <![CDATA[
    .fil0 {fill:white}
   ]]>
  </style>
 </defs>
 <g id="Camada_x0020_1">
  <metadata id="CorelCorpID_0Corel-Layer"/>
  <g id="_2991264044112">
   <path class="fil0" d="M0.037 0.096c-0.001,0 -0.001,0 -0.001,-0.001 -0.002,-0.001 -0.036,-0.038 -0.036,-0.058 0,-0.021 0.016,-0.037 0.037,-0.037 0.02,0 0.036,0.016 0.036,0.037 0,0.02 -0.034,0.057 -0.035,0.058 0,0.001 -0.001,0.001 -0.001,0.001zm0 -0.093c-0.019,0 -0.034,0.015 -0.034,0.034 0,0.016 0.028,0.048 0.034,0.055 0.006,-0.007 0.033,-0.039 0.033,-0.055 0,-0.019 -0.015,-0.034 -0.033,-0.034zm0 0z"/>
   <path class="fil0" d="M0.037 0.064c-0.015,0 -0.027,-0.012 -0.027,-0.027 0,-0.015 0.012,-0.027 0.027,-0.027 0.015,0 0.027,0.012 0.027,0.027 0,0.015 -0.012,0.027 -0.027,0.027zm0 -0.051c-0.013,0 -0.024,0.011 -0.024,0.024 0,0.013 0.011,0.024 0.024,0.024 0.013,0 0.024,-0.011 0.024,-0.024 0,-0.013 -0.011,-0.024 -0.024,-0.024zm0 0z"/>
   <path class="fil0" d="M0.046 0.052c-0.001,0 -0.001,0 -0.002,0l-0.007 -0.005 -0.008 0.005c-0.001,0.001 -0.002,0.001 -0.003,0 -0.001,-0.001 -0.002,-0.002 -0.001,-0.004l0.002 -0.008 -0.007 -0.005c-0.001,-0.001 -0.001,-0.003 -0.001,-0.004 0,-0.001 0.002,-0.002 0.003,-0.002l0.009 0 0.003 -0.009c0,-0.001 0.001,-0.002 0.003,-0.002 0.001,0 0.002,0.001 0.003,0.002l0.003 0.009 0.008 0c0.002,0 0.003,0.001 0.004,0.002 0,0.001 -0.001,0.003 -0.002,0.004l-0.007 0.005 0.003 0.008c0,0.002 0,0.003 -0.001,0.004 -0.001,0 -0.001,0 -0.002,0l0 0zm-0.009 -0.009c0,0 0.001,0.001 0.002,0.001l0.007 0.005 -0.003 -0.008c0,-0.002 0,-0.003 0.001,-0.004l0.007 -0.005 -0.008 0c-0.002,0 -0.003,-0.001 -0.003,-0.002l-0.003 -0.009 0 0 -0.003 0.009c0,0.001 -0.002,0.002 -0.003,0.002l-0.009 0 0.007 0.005c0.001,0.001 0.002,0.002 0.001,0.004l-0.002 0.008 0.007 -0.005c0,0 0.001,-0.001 0.002,-0.001l0 0zm0 0z"/>
  </g>
 </g>
</svg>
