<?xml version="1.0" encoding="UTF-8"?>
<!DOCTYPE svg PUBLIC "-//W3C//DTD SVG 1.1//EN" "http://www.w3.org/Graphics/SVG/1.1/DTD/svg11.dtd">
<!-- Creator: CorelDRAW 2018 (64 Bit) -->
<svg xmlns="http://www.w3.org/2000/svg" xml:space="preserve" width="24px" height="24px" version="1.1" style="shape-rendering:geometricPrecision; text-rendering:geometricPrecision; image-rendering:optimizeQuality; fill-rule:evenodd; clip-rule:evenodd"
viewBox="0 0 0.086 0.088"
 xmlns:xlink="http://www.w3.org/1999/xlink">
 <defs>
  <style type="text/css">
   <![CDATA[
    .fil0 {fill:#73888D}
   ]]>
  </style>
 </defs>
 <g id="Camada_x0020_1">
  <metadata id="CorelCorpID_0Corel-Layer"/>
  <g id="_1973087318416">
   <g>
    <path class="fil0" d="M0.059 0.035l-0.009 -0.001 -0.003 -0.007c-0.001,-0.002 -0.002,-0.003 -0.004,-0.003 -0.002,0 -0.003,0.001 -0.004,0.003l-0.003 0.007 -0.009 0.001c-0.001,0 -0.003,0.001 -0.003,0.003 -0.001,0.002 0,0.003 0.001,0.005l0.007 0.005 -0.002 0.008c-0.001,0.001 -0.001,0.003 0,0.004 0.001,0.001 0.002,0.001 0.004,0.001 0,0 0.001,0 0.002,0l0.007 -0.005 0.007 0.005c0.001,0 0.002,0 0.003,0 0.001,0 0.002,0 0.003,-0.001 0.001,-0.001 0.001,-0.003 0.001,-0.004l-0.002 -0.008 0.006 -0.005c0.001,-0.002 0.002,-0.003 0.001,-0.005 0,-0.002 -0.002,-0.003 -0.003,-0.003zm-0.008 0.01c-0.001,0.001 -0.001,0.002 -0.001,0.003l0.002 0.009 -0.008 -0.005c0,-0.001 -0.001,-0.001 -0.002,0l-0.008 0.005 0.002 -0.009c0,-0.001 0,-0.002 -0.001,-0.003l-0.007 -0.006 0.01 0c0,0 0.001,-0.001 0.002,-0.002l0.003 -0.008 0.004 0.008c0,0.001 0.001,0.002 0.002,0.002l0.009 0 -0.007 0.006z"/>
    <path class="fil0" d="M0.083 0.045c-0.001,-0.001 -0.001,-0.002 0,-0.003l0.002 -0.002c0.001,-0.002 0.001,-0.004 0.001,-0.006 -0.001,-0.002 -0.002,-0.004 -0.004,-0.005l-0.002 -0.001c-0.001,-0.001 -0.002,-0.002 -0.002,-0.003l0.001 -0.003c0,-0.002 0,-0.004 -0.002,-0.006 -0.001,-0.001 -0.003,-0.002 -0.005,-0.002l-0.003 -0.001c-0.001,0 -0.002,0 -0.002,-0.002l-0.001 -0.002c-0.001,-0.003 -0.004,-0.005 -0.007,-0.005 -0.001,0 -0.002,0 -0.003,0l-0.003 0.001c-0.001,0.001 -0.002,0 -0.003,-0.001l-0.002 -0.002c-0.001,-0.001 -0.003,-0.002 -0.005,-0.002 -0.002,0 -0.004,0.001 -0.006,0.003l-0.001 0.002c-0.001,0 -0.003,0.001 -0.004,0l-0.002 -0.001c-0.001,0 -0.002,0 -0.003,0 -0.003,0 -0.006,0.002 -0.007,0.005l-0.001 0.003c0,0.001 -0.001,0.002 -0.002,0.002l-0.003 0c-0.002,0 -0.004,0.001 -0.005,0.003 -0.002,0.001 -0.002,0.004 -0.002,0.006l0.001 0.002c0,0.002 -0.001,0.003 -0.002,0.003l-0.002 0.002c-0.002,0.001 -0.003,0.002 -0.004,0.005 0,0.002 0,0.004 0.001,0.005l0.002 0.003c0.001,0.001 0.001,0.002 0,0.003l-0.002 0.002c-0.001,0.002 -0.001,0.004 -0.001,0.006 0.001,0.002 0.002,0.004 0.004,0.005l0.002 0.001c0.001,0.001 0.002,0.002 0.002,0.003l-0.001 0.003c0,0.002 0.001,0.004 0.002,0.006 0.001,0.001 0.003,0.002 0.005,0.002l0.003 0.001c0.001,0 0.002,0 0.003,0.002l0 0.002c0.001,0.003 0.004,0.005 0.007,0.005l0 0c0.001,0 0.002,0 0.003,0l0.003 -0.001c0.001,-0.001 0.002,0 0.003,0.001l0.002 0.002c0.001,0.001 0.003,0.002 0.005,0.002 0.003,0 0.005,-0.001 0.006,-0.003l0.002 -0.002c0,0 0.002,-0.001 0.003,0l0.002 0.001c0.001,0 0.002,0 0.003,0 0.004,0 0.006,-0.002 0.007,-0.005l0.001 -0.003c0,-0.001 0.001,-0.002 0.003,-0.002l0.002 0c0.002,0 0.004,-0.001 0.006,-0.003 0.001,-0.001 0.001,-0.004 0.001,-0.006l0 -0.002c-0.001,-0.002 0,-0.003 0.001,-0.003l0.002 -0.002c0.002,-0.001 0.004,-0.002 0.004,-0.005 0,-0.002 0,-0.004 -0.001,-0.005l-0.002 -0.003zm-0.001 0.008c0,0 -0.001,0.001 -0.002,0.001l-0.002 0.002c-0.003,0.001 -0.004,0.004 -0.004,0.007l0.001 0.003c0,0.001 0,0.002 -0.001,0.002 0,0.001 -0.001,0.001 -0.002,0.002l-0.003 0c-0.003,0 -0.005,0.002 -0.006,0.005l-0.001 0.003c0,0.001 -0.001,0.002 -0.003,0.002 0,0 -0.001,0 -0.001,0l-0.002 -0.001c-0.001,-0.001 -0.002,-0.001 -0.003,-0.001 -0.002,0 -0.004,0.001 -0.006,0.003l-0.001 0.002c-0.001,0 -0.002,0.001 -0.003,0.001 0,0 -0.001,-0.001 -0.002,-0.001l-0.002 -0.002c-0.001,-0.002 -0.003,-0.003 -0.005,-0.003 -0.001,0 -0.002,0 -0.003,0.001l-0.002 0.001c-0.001,0 -0.001,0 -0.002,0 -0.001,0 -0.002,-0.001 -0.002,-0.002l-0.001 -0.003c-0.001,-0.003 -0.004,-0.005 -0.007,-0.005l-0.003 0c0,0 -0.001,0 -0.002,-0.001 0,-0.001 0,-0.002 0,-0.002l0 -0.003c0.001,-0.003 -0.001,-0.006 -0.004,-0.008l-0.002 -0.001c-0.001,0 -0.001,-0.001 -0.001,-0.002 -0.001,-0.001 0,-0.002 0,-0.002l0.002 -0.002c0.001,-0.003 0.001,-0.006 -0.001,-0.009l-0.001 -0.002c-0.001,-0.001 -0.001,-0.002 -0.001,-0.003 0.001,0 0.001,-0.001 0.002,-0.001l0.002 -0.002c0.003,-0.001 0.004,-0.004 0.004,-0.008l-0.001 -0.002c0,-0.001 0,-0.002 0.001,-0.002 0,-0.001 0.001,-0.002 0.002,-0.002l0.003 0c0.003,0 0.006,-0.002 0.006,-0.005l0.001 -0.003c0,-0.001 0.002,-0.002 0.003,-0.002 0,0 0.001,0 0.001,0l0.003 0.001c0,0.001 0.001,0.001 0.002,0.001 0.002,0 0.004,-0.001 0.006,-0.003l0.002 -0.002c0,0 0.001,-0.001 0.002,-0.001 0.001,0 0.001,0.001 0.002,0.001l0.002 0.002c0.001,0.002 0.003,0.003 0.005,0.003 0.001,0 0.002,0 0.003,-0.001l0.003 -0.001c0,0 0,0 0.001,0 0.001,0 0.002,0.001 0.003,0.002l0 0.003c0.001,0.003 0.004,0.005 0.007,0.005l0.003 0c0.001,0 0.001,0 0.002,0.001 0,0.001 0.001,0.002 0,0.002l0 0.003c0,0.003 0.001,0.006 0.004,0.008l0.002 0.001c0.001,0 0.001,0.001 0.002,0.002 0,0.001 0,0.002 -0.001,0.002l-0.001 0.002c-0.002,0.003 -0.002,0.006 0,0.009l0.001 0.002c0.001,0.001 0.001,0.002 0.001,0.003z"/>
   </g>
  </g>
 </g>
</svg>
