<?xml version="1.0" encoding="UTF-8"?>
<!DOCTYPE svg PUBLIC "-//W3C//DTD SVG 1.1//EN" "http://www.w3.org/Graphics/SVG/1.1/DTD/svg11.dtd">
<!-- Creator: CorelDRAW 2018 (64 Bit) -->
<svg xmlns="http://www.w3.org/2000/svg" xml:space="preserve" width="30px" height="30px" version="1.1" style="shape-rendering:geometricPrecision; text-rendering:geometricPrecision; image-rendering:optimizeQuality; fill-rule:evenodd; clip-rule:evenodd"
viewBox="0 0 0.488 0.489"
 xmlns:xlink="http://www.w3.org/1999/xlink">
 <defs>
  <style type="text/css">
   <![CDATA[
    .fil0 {fill:white;fill-rule:nonzero}
   ]]>
  </style>
 </defs>
 <g id="Camada_x0020_1">
  <metadata id="CorelCorpID_0Corel-Layer"/>
  <path class="fil0" d="M0.244 0c-0.135,0 -0.244,0.109 -0.244,0.245 0,0.135 0.109,0.244 0.244,0.244 0.135,0 0.244,-0.109 0.244,-0.244 0,-0.136 -0.109,-0.245 -0.244,-0.245zm0.064 0.223l-0.002 0.022 -0.043 0 0 0.145 -0.058 0 0 -0.145 -0.029 0 0 -0.022 0 -0.035 0.029 0 0 -0.026c0,-0.024 0.011,-0.061 0.061,-0.061l0.045 0 0 0.049 -0.033 0c-0.005,0 -0.013,0.003 -0.013,0.015l0 0.023 0.047 0 -0.004 0.035z"/>
 </g>
</svg>
