<?xml version="1.0" encoding="UTF-8"?>
<!DOCTYPE svg PUBLIC "-//W3C//DTD SVG 1.1//EN" "http://www.w3.org/Graphics/SVG/1.1/DTD/svg11.dtd">
<!-- Creator: CorelDRAW 2018 (64 Bit) -->
<svg xmlns="http://www.w3.org/2000/svg" xml:space="preserve" width="30px" height="30px" version="1.1" style="shape-rendering:geometricPrecision; text-rendering:geometricPrecision; image-rendering:optimizeQuality; fill-rule:evenodd; clip-rule:evenodd"
viewBox="0 0 0.566 0.567"
 xmlns:xlink="http://www.w3.org/1999/xlink">
 <defs>
  <style type="text/css">
   <![CDATA[
    .fil0 {fill:white;fill-rule:nonzero}
   ]]>
  </style>
 </defs>
 <g id="Camada_x0020_1">
  <metadata id="CorelCorpID_0Corel-Layer"/>
  <path class="fil0" d="M0.283 0c-0.156,0 -0.283,0.127 -0.283,0.284 0,0.156 0.127,0.283 0.283,0.283 0.156,0 0.283,-0.127 0.283,-0.283 0,-0.157 -0.127,-0.284 -0.283,-0.284zm-0.082 0.259l0 0.178 -0.079 0 0 -0.164 0 -0.06 0.079 0 0 0.046zm-0.039 -0.079c-0.022,0 -0.04,-0.017 -0.04,-0.04 0,-0.021 0.018,-0.039 0.04,-0.039 0.021,0 0.039,0.018 0.039,0.039 0,0.023 -0.018,0.04 -0.039,0.04zm0.296 0.134l0 0.123 -0.067 0 0 -0.109c0,-0.026 -0.003,-0.06 -0.039,-0.06 -0.035,0 -0.041,0.029 -0.041,0.059l0 0.11 -0.065 0 0 -0.181 0 -0.043 0.062 0 0 0.031 0.001 0c0.009,-0.018 0.031,-0.031 0.066,-0.031 0.056,0 0.076,0.027 0.081,0.069 0.001,0.01 0.002,0.021 0.002,0.032z"/>
 </g>
</svg>
